@startjson Json Plate Example

title Plate Json Example

{
  "spec_version": {
    "minor": 1,
    "major": 0
  }
  ,
  "title": "Generic 96-well plate",
  "type": 0,
  "num_rows": 12,
  "num_cols": 8,
  "vial_volume": 3254,
  "vial_diameter": 8,
  "vial_height": 40
}

@endjson
