@startuml Models Project

title Project Structure

namespace models {

  namespace project {
    class ExtractorProject {
      + {field} info
      + {field} laboratory
      + {field} layout
      + {field} protocol
    }

    class ProjectInfo {
      + {field} spec_version_maj
      + {field} spec_version_min
      + {field} date_created
      + {field} date_modified
      + {field} title
      + {field} author
      + {field} description
    }
    class Laboratory {
      + {field} name
      + {field} address
      + {field} phone
      + {field} email
    }
    class Layout {
      + {field} plates
    }
    class Protocol {
      + {field} steps
    }

    ExtractorProject o-- ProjectInfo : info
    ExtractorProject o-- Laboratory : laboratory
    ExtractorProject o-- Layout : layout
    ExtractorProject o-- Protocol : protocol
  }

  namespace steps {
    abstract AbstractStep
  }

  namespace plates {
    class Plate {
      + {field} reagents
      + {field} sleeve
    }
    class Reagent
    class Sleeve

    Plate "1" *-- "many" Reagent : reagents
    Plate "1" o-- "1" Sleeve : sleeve
  }

}

models.project.Layout "1" *-- "many" models.plates.Plate : plates
models.project.Protocol "1" *-- "many" models.steps.AbstractStep : steps


@enduml
